PatTrEnvDat Week 6
…
FALSE  TRUE 
  608 14951 

Count observations per crop type

crop_counts <- wildschwein_annotated |>
  st_drop_geometry() |>
  count(Frucht) |>
  arrange(desc(n))

View the results

print(crop_counts)

# A tibble: 25 × 2
   Frucht           n
   <chr>        <int>
 1 Wald          9459
 2 Feuchtgebiet  2201
 3 Gerste        1479
 4 <NA>           608
 5 Rueben         445
 6 Bohnen         329
 7 Wiese          301
 8 Zwiebeln       221
 9 Mais           149
10 Weizen         128
# ℹ 15 more rows
…
